^C:\USERS\LORDE\ONEDRIVE\РОБОЧИЙ СТІЛ\АЛГОРИТМИ\LAB05\TASK3\X64\DEBUG\TASK3.OBJ
C:\USERS\LORDE\ONEDRIVE\Робочий стіл\Алгоритми\LAB05\X64\DEBUG\TASK3.EXE
C:\USERS\LORDE\ONEDRIVE\Робочий стіл\Алгоритми\LAB05\TASK3\X64\DEBUG\TASK3.ILK
C:\USERS\LORDE\ONEDRIVE\Робочий стіл\Алгоритми\LAB05\X64\DEBUG\TASK3.PDB
